R course project report
…
[1] 46

Code

n_distinct(car_data$model)

[1] 405

Code

make_counts <- car_data |>
  count(make, sort = TRUE)
print(make_counts)

# A tibble: 46 × 2
   make              n
   <chr>         <int>
 1 Volkswagen     1067
 2 Volvo          1034
 3 BMW             542
 4 Audi            482
 5 Mercedes-Benz   478
 6 Ford            335
 7 Kia             293
 8 Toyota          278
 9 Renault         205
10 Skoda           202
# ℹ 36 more rows
…
